Volleyball Scores
…
library(cluster)
mens <- read_excel("C:\\Users\\roseh\\OneDrive\\Desktop\\Spring 2021\\SDS 348\\mens.xlsx")
womens <- read_excel("C:\\Users\\roseh\\OneDrive\\Desktop\\Spring 2021\\SDS 348\\womens.xlsx")

# Make a gender column in each dataset and label it with M or W respectively so merge goes successfully
mens <- mens %>%
  mutate(Gender = 'M')

womens <- womens %>%
  mutate(Gender = 'W')
mens

## # A tibble: 255 x 9
##     Rank ShirtNumber Name               Team  Attacks Blocks Serves Total Gender
##    <dbl>       <dbl> <chr>              <chr>   <dbl>  <dbl>  <dbl> <dbl> <chr> 
##  1     1          10 Amir Ghafour       IRI       214     21     14   249 M     
##  2     2          11 Yuji Nishida       JPN       183     13     23   219 M     
##  3     3          18 Ricardo Lucarelli~ BRA       173     14     23   210 M     
##  4     4          13 Simon Hirsch       GER       170     21     13   204 M     
##  5     5           9 Yoandy Leal Hidal~ BRA       161     22     19   202 M     
##  6     6          12 Bruno Lima         ARG       177     16      6   199 M     
##  7     7          15 Victor Poletaev    RUS       158     20     16   194 M     
##  8     8          14 Yuki Ishikawa      JPN       170     12     11   193 M     
##  9     9          18 Lincoln Alexander~ AUS       156     10     12   178 M     
## 10    10           2 Chuan Jiang        CHN       152     19      6   177 M     
## # ... with 245 more rows

Join/Merge

The two datasets were merged using a full join. Both data sets have all of the same variable names so each column name had to be specified to make sure the resulting dataset was tidy. No cases were dropped, but there were issues figuring out how to join by multiple columns for that was not shown in class.

# merge the datasets vertically because they have the same variables
scores <- mens %>%
  full_join(womens, by = c("Rank","Name", "ShirtNumber", "Team","Attacks", "Blocks", "Serves", "Total", "Gender"))
scores

## # A tibble: 500 x 9
##     Rank ShirtNumber Name               Team  Attacks Blocks Serves Total Gender
##    <dbl>       <dbl> <chr>              <chr>   <dbl>  <dbl>  <dbl> <dbl> <chr> 
##  1     1          10 Amir Ghafour       IRI       214     21     14   249 M     
##  2     2          11 Yuji Nishida       JPN       183     13     23   219 M     
##  3     3          18 Ricardo Lucarelli~ BRA       173     14     23   210 M     
##  4     4          13 Simon Hirsch       GER       170     21     13   204 M     
##  5     5           9 Yoandy Leal Hidal~ BRA       161     22     19   202 M     
##  6     6          12 Bruno Lima         ARG       177     16      6   199 M     
##  7     7          15 Victor Poletaev    RUS       158     20     16   194 M     
##  8     8          14 Yuki Ishikawa      JPN       170     12     11   193 M     
##  9     9          18 Lincoln Alexander~ AUS       156     10     12   178 M     
## 10    10           2 Chuan Jiang        CHN       152     19      6   177 M     
## # ... with 490 more rows
…
## # A tibble: 1 x 1
##   count
##   <int>
## 1    40

# Group by Team to see distribution of international representation and count how many players on each team there are 
scores %>%
  group_by(Team) %>%
  summarize(numPlayers = n()) %>%
  arrange(numPlayers)

## # A tibble: 22 x 2
##    Team  numPlayers
##    <chr>      <int>
##  1 DOM           11
##  2 POR           12
##  3 AUS           13
##  4 BEL           13
##  5 IRI           13
##  6 KOR           13
##  7 ARG           14
##  8 THA           14
##  9 TUR           14
## 10 CAN           16
## # ... with 12 more rows
# Use arrange and top_n to find the highest score
scores %>%
  select(Total) %>%
  top_n(1, Total)

## # A tibble: 1 x 1
##   Total
##   <dbl>
## 1   421

# Use arrange to find the lowest rank possible
scores %>%
  arrange(desc(Rank))

## # A tibble: 500 x 9
##     Rank ShirtNumber Name               Team  Attacks Blocks Serves Total Gender
##    <dbl>       <dbl> <chr>              <chr>   <dbl>  <dbl>  <dbl> <dbl> <chr> 
##  1   255          11 Aleksa Batak       SRB         0      0      1     1 M     
##  2   254           2 Hideomi Fukatsu    JPN         0      0      1     1 M     
##  3   253          28 Francesco Recine   ITA         1      0      0     1 M     
##  4   252          21 Morteza Sharifi    IRI         1      0      0     1 M     
##  5   251           1 Tyler Sanders      CAN         0      0      1     1 M     
##  6   250          30 Nikolay Kolev      BUL         1      0      0     1 M     
##  7   249          22 Andrija Vilimanov~ SRB         2      0      0     2 M     
##  8   248           3 Luca Spirito       ITA         2      0      0     2 M     
##  9   247           6 Benjamin Toniutti  FRA         1      1      0     2 M     
## 10   246           5 Raphal Corre      FRA         0      2      0     2 M     
## # ... with 490 more rows
…
